…
Google planilhas

Particularmente, esse é meu método preferido de carregar os dados, justamente porque meus dados são todos armazenados em Google planilhas.

Primeiramente é necessário instalar o pacote gsheet. Utilize o comando install.packages("gsheet").

posteriormente, vá na sua planilha google, clique no botão Compartilhar no canto superior direito. Clique em Receber link compartilhável. Assim você vai gerar um link. Copie o link e inserira na função
gsheet2tbl(). Lembre-se de primento carregar o pacote gsheet

library(gsheet)

gsheet2tbl("https://docs.google.com/spreadsheets/d/1sQPemg1lSYremWh4xe83YUDeDJiRh_M3WqqHiOnfVow/edit?usp=sharing")

## # A tibble: 48 x 5
##    experimento tratamento tempo repeticao severidade
##          <dbl> <chr>      <dbl>     <dbl>      <dbl>
##  1           1 testemunha     1         1       0.2 
##  2           1 testemunha     1         2       0.1 
##  3           1 testemunha     1         3       0.15
##  4           1 testemunha     1         4       0.3 
##  5           1 testemunha     2         1       2   
##  6           1 testemunha     2         2       3   
##  7           1 testemunha     2         3       2.5 
##  8           1 testemunha     2         4       3.2 
##  9           1 testemunha     3         1      10   
## 10           1 testemunha     3         2      10.2 
## # ... with 38 more rows
