Carregar Dados no RStudio | Kaique Alves
…
Carregar a partir de arquivo Excel .xlsx (ou .xls)

library(readxl)

read_excel("data.xlsx")

## # A tibble: 48 x 5
##    experimento tratamento tempo repeticao severidade
##          <dbl> <chr>      <dbl>     <dbl> <chr>     
##  1           1 testemunha     1         1 0.2       
##  2           1 testemunha     1         2 0.1       
##  3           1 testemunha     1         3 0.15      
##  4           1 testemunha     1         4 0.3       
##  5           1 testemunha     2         1 2.0       
##  6           1 testemunha     2         2 3.0       
##  7           1 testemunha     2         3 43953.0   
##  8           1 testemunha     2         4 43864.0   
##  9           1 testemunha     3         1 10.0      
## 10           1 testemunha     3         2 43871.0   
## # ... with 38 more rows
…
